%YAML 1.1
%TAG !u! tag:unity3d.com,2011:
--- !u!1045 &1
EditorBuildSettings:
  m_ObjectHideFlags: 0
  serializedVersion: 2
  m_Scenes:
  - enabled: 1
    path: Assets/Scenes/main.unity
  - enabled: 1
    path: Assets/Scenes/intro.unity
  - enabled: 1
    path: Assets/Scenes/home.unity
  - enabled: 1
    path: Assets/Scenes/game.unity
  - enabled: 1
    path: Assets/Scenes/jungle.unity
  - enabled: 1
    path: Assets/Scenes/final.unity
